[gd_resource type="Theme" load_steps=5 format=2]

[ext_resource path="res://gabriele/gabriele-br.TTF" type="DynamicFontData" id=1]

[sub_resource type="StyleBoxFlat" id=1]
bg_color = Color( 0.0156863, 0.0156863, 0.0156863, 1 )

[sub_resource type="StyleBoxFlat" id=2]
bg_color = Color( 1, 1, 1, 1 )
border_width_left = 3
border_width_top = 3
border_width_right = 3
border_width_bottom = 3

[sub_resource type="DynamicFont" id=3]
size = 30
font_data = ExtResource( 1 )

[resource]
default_font = SubResource( 3 )
Panel/styles/panel = SubResource( 1 )
PanelContainer/styles/panel = SubResource( 2 )
